"ID";"Name";"Category1";"Category2";"Bandwidth";"Comments";"Picture";"Level";"LO16";"LO31_5";"LO63";"LO125";"LO250";"LO500";"LO1k";"LO2k";"LO4k";"LO8k";"LO16k";"LO32k";"LO64k";"LO128k";"L3O12_5";"L3O16";"L3O20";"L3O25";"L3O31_5";"L3O40";"L3O50";"L3O63";"L3O80";"L3O100";"L3O125";"L3O160";"L3O200";"L3O250";"L3O315";"L3O400";"L3O500";"L3O630";"L3O800";"L3O1k";"L3O1_2k";"L3O1_6k";"L3O2k";"L3O2_5k";"L3O3_2k";"L3O4k";"L3O5k";"L3O6_3k";"L3O8k";"L3O10k";"L3O12_5k";"L3O16k";"L3O20k";"L3O25k";"L3O32k";"L3O40k";"L3O50k";"L3O64k";"L3O80k";"L3O100k";"L3O128k";"L3O160k";"L3O200k"
"1";"Cod";"Fish";;"Octave";;;;;;;"0.0";"1.0";"2.0";"3.0";"4.0";"5.0";"6.0";"7.0";;;;;;;;;;;;;;;;;;;;;;;;;;;;;;;;;;;;;;;;;;;;;;
"2";"Herring";"Fish";;"Octave";;;;;;;"5.0";"8.0";"2.0";"3.0";"4.0";"5.0";"6.0";"7.0";;;;;;;;;;;;;;;;;;;;;;;;;;;;;;;;;;;;;;;;;;;;;;
"3";"Mackerel";"Fish";;"Octave";;;;;;;"10.0";"10.0";"2.0";"10.0";"4.0";"5.0";"6.0";"7.0";;;;;;;;;;;;;;;;;;;;;;;;;;;;;;;;;;;;;;;;;;;;;;
4;"Seal";"Fish";;"Octave";;;;;;;"10.0";"2.0";"2.0";"4.0";"4.0";"5.0";"6.0";"7.0";;;;;;;;;;;;;;;;;;;;;;;;;;;;;;;;;;;;;;;;;;;;;;
